CompleteCPU/singlecycle.vcd
$date
	Wed Jun 11 14:36:54 2025
$end
$version
	Icarus Verilog
$end
$timescale
	1ps
$end
$scope module SingleCycleProcTest_v $end
$var wire 64 ! dMemOut [63:0] $end
$var wire 64 " currentPC [63:0] $end
$var reg 1 # CLK $end
$var reg 1 $ Reset_L $end
$var reg 8 % passed [7:0] $end
$var reg 64 & startPC [63:0] $end
$var reg 16 ' watchdog [15:0] $end
$scope module uut $end
$var wire 1 # CLK $end
$var wire 64 ( dmemout [63:0] $end
$var wire 1 $ resetl $end
$var wire 64 ) startpc [63:0] $end
$var wire 1 * zero $end
$var wire 64 + writedata [63:0] $end
$var wire 1 , uncond_branch $end
$var wire 3 - signop [2:0] $end
$var wire 5 . rn [4:0] $end
$var wire 5 / rm [4:0] $end
$var wire 1 0 regwrite $end
$var wire 64 1 regoutB [63:0] $end
$var wire 64 2 regoutA [63:0] $end
$var wire 1 3 reg2loc $end
$var wire 5 4 rd [4:0] $end
$var wire 11 5 opcode [10:0] $end
$var wire 64 6 nextpc [63:0] $end
$var wire 1 7 memwrite $end
$var wire 1 8 memread $end
$var wire 64 9 memout [63:0] $end
$var wire 1 : mem2reg $end
$var wire 32 ; instruction [31:0] $end
$var wire 64 < extimm [63:0] $end
$var wire 1 = branch $end
$var wire 1 > alusrc $end
$var wire 64 ? aluout [63:0] $end
$var wire 64 @ aluin [63:0] $end
$var wire 4 A aluctrl [3:0] $end
$var reg 64 B currentpc [63:0] $end
$scope module ALU $end
$var wire 64 C BusB [63:0] $end
$var wire 2 D amt [1:0] $end
$var wire 64 E BusA [63:0] $end
$var wire 4 F ALUCtrl [3:0] $end
$var reg 64 G BusW [63:0] $end
$var reg 1 * Zero $end
$upscope $end
$scope module DataMemory $end
$var wire 64 H Address [63:0] $end
$var wire 1 # Clock $end
$var wire 64 I WriteData [63:0] $end
$var wire 1 7 MemoryWrite $end
$var wire 1 8 MemoryRead $end
$var reg 64 J ReadData [63:0] $end
$scope task initset $end
$var reg 64 K addr [63:0] $end
$var reg 64 L data [63:0] $end
$upscope $end
$upscope $end
$scope module NextPClogic $end
$var wire 1 * ALUZero $end
$var wire 64 M CurrentPC [63:0] $end
$var wire 1 , Uncondbranch $end
$var wire 64 N SignExtImm64 [63:0] $end
$var wire 1 = Branch $end
$var reg 64 O NextPC [63:0] $end
$upscope $end
$scope module RegisterFile $end
$var wire 64 P BusW [63:0] $end
$var wire 1 # Clk $end
$var wire 5 Q RA [4:0] $end
$var wire 5 R RB [4:0] $end
$var wire 5 S RW [4:0] $end
$var wire 1 0 RegWr $end
$var wire 64 T BusB [63:0] $end
$var wire 64 U BusA [63:0] $end
$upscope $end
$scope module SignExtender $end
$var wire 26 V Imm26 [25:0] $end
$var wire 3 W Ctrl [2:0] $end
$var reg 64 X BusImm [63:0] $end
$var reg 1 Y extBit $end
$var reg 64 Z extended [63:0] $end
$upscope $end
$scope module control $end
$var wire 11 [ opcode [10:0] $end
$var reg 4 \ aluop [3:0] $end
$var reg 1 > alusrc $end
$var reg 1 = branch $end
$var reg 1 : mem2reg $end
$var reg 1 8 memread $end
$var reg 1 7 memwrite $end
$var reg 1 3 reg2loc $end
$var reg 1 0 regwrite $end
$var reg 3 ] signop [2:0] $end
$var reg 1 , uncond_branch $end
$upscope $end
$scope module imem $end
$var wire 64 ^ Address [63:0] $end
$var reg 32 _ Data [31:0] $end
$upscope $end
$upscope $end
$scope task allPassed $end
$var reg 8 ` numTests [7:0] $end
$var reg 8 a passed [7:0] $end
$upscope $end
$scope task passTest $end
$var reg 64 b actualOut [63:0] $end
$var reg 64 c expectedOut [63:0] $end
$var reg 8 d passed [7:0] $end
$var reg 257 e testType [256:0] $end
$upscope $end
$upscope $end
$enddefinitions $end
#0
$dumpvars
bx e
bx d
bx c
bx b
bx a
bx `
bx _
bx ^
bx ]
bx \
bx [
bx Z
xY
bx X
bx W
bx V
bx U
bx T
bx S
bx R
bx Q
bx P
bx O
bx N
bx M
b0 L
b100000 K
bx J
bx I
bx H
bx G
bx F
bx E
bz D
bx C
bx B
bx A
bx @
bx ?
x>
x=
bx <
bx ;
x:
bx 9
x8
x7
bx 6
bx 5
bx 4
x3
bx 2
bx 1
x0
bx /
bx .
bx -
x,
bx +
x*
b0 )
bx (
b0 '
b0 &
b0 %
1$
0#
bx "
bx !
$end
#60000
1#
#120000
b1 '
0#
#121000
0$
#180000
1#
#240000
b100 6
b100 O
b0 "
b0 B
b0 M
b0 ^
b10 '
0#
#241000
1$
#244000
0Y
0*
b0 @
b0 C
b1 -
b1 W
b1 ]
b10 A
b10 F
b10 \
0,
0=
07
18
10
1:
1>
b0 <
b0 N
b0 X
b0x00x .
b0x00x R
b10000000000001111101001 V
b11111000010 5
b11111000010 [
b11111 /
b11111 Q
b1001 4
b1001 S
b11111000010000000000001111101001 ;
b11111000010000000000001111101001 _
#246000
1*
b0 ?
b0 G
b0 H
b0 2
b0 E
b0 U
#300000
1#
#320000
b1 +
b1 P
b1 !
b1 (
b1 9
b1 J
#360000
b1000 6
b1000 O
b100 "
b100 B
b100 M
b100 ^
b11 '
0#
#364000
0*
b1000 ?
b1000 G
b1000 H
b1000 @
b1000 C
b1000 <
b1000 N
b1000 X
b0x0x0 .
b0x0x0 R
b10000001000001111101010 V
b1010 4
b1010 S
b11111000010000001000001111101010 ;
b11111000010000001000001111101010 _
#420000
1#
#440000
b1010 +
b1010 P
b1010 !
b1010 (
b1010 9
b1010 J
#480000
b1100 6
b1100 O
b1000 "
b1000 B
b1000 M
b1000 ^
b100 '
0#
#484000
b10000 ?
b10000 G
b10000 H
b10000 @
b10000 C
b10000 <
b10000 N
b10000 X
b0x0x1 .
b0x0x1 R
b10000010000001111101011 V
b1011 4
b1011 S
b11111000010000010000001111101011 ;
b11111000010000010000001111101011 _
#540000
1#
#560000
b101 +
b101 P
b101 !
b101 (
b101 9
b101 J
#600000
b10000 6
b10000 O
b1100 "
b1100 B
b1100 M
b1100 ^
b101 '
0#
#604000
b11000 ?
b11000 G
b11000 H
b11000 @
b11000 C
b11000 <
b11000 N
b11000 X
b0xx0x .
b0xx0x R
b10000011000001111101100 V
b1100 4
b1100 S
b11111000010000011000001111101100 ;
b11111000010000011000001111101100 _
#660000
1#
#680000
b111111111011111010100111110111101010110110111110111011111111 +
b111111111011111010100111110111101010110110111110111011111111 P
b111111111011111010100111110111101010110110111110111011111111 !
b111111111011111010100111110111101010110110111110111011111111 (
b111111111011111010100111110111101010110110111110111011111111 9
b111111111011111010100111110111101010110110111110111011111111 J
#720000
b10100 6
b10100 O
b10000 "
b10000 B
b10000 M
b10000 ^
b110 '
0#
#724000
b100000 ?
b100000 G
b100000 H
b100000 @
b100000 C
b100000 <
b100000 N
b100000 X
b0xxxx .
b0xxxx R
b10000100000001111101101 V
b1101 4
b1101 S
b11111000010000100000001111101101 ;
b11111000010000100000001111101101 _
#780000
1#
#800000
b0 +
b0 P
b0 !
b0 (
b0 9
b0 J
#840000
b11000 6
b11000 O
b10100 "
b10100 B
b10100 M
b10100 ^
b111 '
0#
#844000
bx +
bx P
bx -
bx W
bx ]
b1 A
b1 F
b1 \
08
0:
0>
03
bx ?
bx G
bx H
bx @
bx C
b0 <
b0 N
b0 X
b1011 .
b1011 R
b10000010110000000101001010 V
b10101010000 5
b10101010000 [
b1010 /
b1010 Q
b1010 4
b1010 S
b10101010000010110000000101001010 ;
b10101010000010110000000101001010 _
#846000
b1111 +
b1111 P
b101 @
b101 C
b1111 ?
b1111 G
b1111 H
b101 1
b101 I
b101 T
b1010 2
b1010 E
b1010 U
#900000
1#
#960000
b11100 6
b11100 O
b11000 "
b11000 B
b11000 M
b11000 ^
b1000 '
0#
#964000
b0 +
b0 P
1*
b0 ?
b0 G
b0 H
b0 A
b0 F
b0 \
b1010 .
b1010 R
b10000010100000000110001100 V
b10001010000 5
b10001010000 [
b1100 /
b1100 Q
b1100 4
b1100 S
b10001010000010100000000110001100 ;
b10001010000010100000000110001100 _
#966000
b1111 +
b1111 P
b1111 @
b1111 C
0*
b1111 ?
b1111 G
b1111 H
b1111 1
b1111 I
b1111 T
b111111111011111010100111110111101010110110111110111011111111 2
b111111111011111010100111110111101010110110111110111011111111 E
b111111111011111010100111110111101010110110111110111011111111 U
#1020000
1#
#1080000
b100000 6
b100000 O
b11100 "
b11100 B
b11100 M
b11100 ^
b1001 '
0#
#1084000
b100 <
b100 N
b100 X
b0xxxx +
b0xxxx P
b11 -
b11 W
b11 ]
b111 A
b111 F
b111 \
1=
00
x:
13
b1100 .
b1100 R
b10001100 V
b10110100000 5
b10110100000 [
b100 /
b100 Q
b10110100000000000000000010001100 ;
b10110100000000000000000010001100 _
#1086000
bx 2
bx E
bx U
#1140000
1#
#1200000
b100100 6
b100100 O
b100000 "
b100000 B
b100000 M
b100000 ^
b1010 '
0#
#1204000
bx ?
bx G
bx H
bx +
bx P
bx -
bx W
bx ]
b10 A
b10 F
b10 \
0=
10
0:
03
b0 <
b0 N
b0 X
b1001 .
b1001 R
b11000010010000000110101101 V
b10001011000 5
b10001011000 [
b1101 /
b1101 Q
b1101 4
b1101 S
b10001011000010010000000110101101 ;
b10001011000010010000000110101101 _
#1206000
b1 +
b1 P
b1 @
b1 C
b1 ?
b1 G
b1 H
b1 1
b1 I
b1 T
b0 2
b0 E
b0 U
#1260000
1#
#1320000
b101000 6
b101000 O
b100100 "
b100100 B
b100100 M
b100100 ^
b1011 '
0#
#1324000
b1111111111111111111111111111111111111111111111111111111111111111 +
b1111111111111111111111111111111111111111111111111111111111111111 P
b1111111111111111111111111111111111111111111111111111111111111111 ?
b1111111111111111111111111111111111111111111111111111111111111111 G
b1111111111111111111111111111111111111111111111111111111111111111 H
b110 A
b110 F
b110 \
b11000010010000000110001100 V
b11001011000 5
b11001011000 [
b1100 /
b1100 Q
b1100 4
b1100 S
b11001011000010010000000110001100 ;
b11001011000010010000000110001100 _
#1326000
b1110 +
b1110 P
b1110 ?
b1110 G
b1110 H
b1111 2
b1111 E
b1111 U
#1380000
1#
#1440000
b101100 6
b101100 O
b101000 "
b101000 B
b101000 M
b101000 ^
b1100 '
0#
#1444000
b11100 6
b11100 O
b1111111111111111111111111111111111111111111111111111111111111101 <
b1111111111111111111111111111111111111111111111111111111111111101 N
b1111111111111111111111111111111111111111111111111111111111111101 X
1Y
b0xxx0 +
b0xxx0 P
bx01 @
bx01 C
b10 -
b10 W
b10 ]
bx A
bx F
bx \
1,
x=
00
x:
x>
x3
b111x1 .
b111x1 R
b11111111111111111111111101 V
b10111111 5
b10111111 [
b11111 /
b11111 Q
b11101 4
b11101 S
b10111111111111111111111111101 ;
b10111111111111111111111111101 _
#1446000
bx @
bx C
bx 1
bx I
bx T
b0 2
b0 E
b0 U
#1500000
1#
#1560000
b10000 6
b10000 O
b11100 "
b11100 B
b11100 M
b11100 ^
b1101 '
0#
#1564000
bx +
bx P
bx ?
bx G
bx H
b100000 6
b100000 O
b11 -
b11 W
b11 ]
b111 A
b111 F
b111 \
0,
1=
0>
13
b100 <
b100 N
b100 X
0Y
b1100 .
b1100 R
b10001100 V
b10110100000 5
b10110100000 [
b100 /
b100 Q
b1100 4
b1100 S
b10110100000000000000000010001100 ;
b10110100000000000000000010001100 _
#1566000
b0xxx0 +
b0xxx0 P
b1110 ?
b1110 G
b1110 H
b1110 @
b1110 C
b1110 1
b1110 I
b1110 T
bx 2
bx E
bx U
#1620000
1#
#1680000
b100100 6
b100100 O
b100000 "
b100000 B
b100000 M
b100000 ^
b1110 '
0#
#1684000
bx ?
bx G
bx H
bx +
bx P
bx -
bx W
bx ]
b10 A
b10 F
b10 \
0=
10
0:
03
b0 <
b0 N
b0 X
b1001 .
b1001 R
b11000010010000000110101101 V
b10001011000 5
b10001011000 [
b1101 /
b1101 Q
b1101 4
b1101 S
b10001011000010010000000110101101 ;
b10001011000010010000000110101101 _
#1686000
b10 +
b10 P
b1 @
b1 C
b10 ?
b10 G
b10 H
b1 1
b1 I
b1 T
b1 2
b1 E
b1 U
#1740000
1#
#1800000
b101000 6
b101000 O
b100100 "
b100100 B
b100100 M
b100100 ^
b1111 '
0#
#1804000
b0 +
b0 P
1*
b0 ?
b0 G
b0 H
b110 A
b110 F
b110 \
b11000010010000000110001100 V
b11001011000 5
b11001011000 [
b1100 /
b1100 Q
b1100 4
b1100 S
b11001011000010010000000110001100 ;
b11001011000010010000000110001100 _
#1806000
b1101 +
b1101 P
0*
b1101 ?
b1101 G
b1101 H
b1110 2
b1110 E
b1110 U
#1860000
1#
#1920000
b101100 6
b101100 O
b101000 "
b101000 B
b101000 M
b101000 ^
b10000 '
0#
#1924000
b11100 6
b11100 O
b1111111111111111111111111111111111111111111111111111111111111101 <
b1111111111111111111111111111111111111111111111111111111111111101 N
b1111111111111111111111111111111111111111111111111111111111111101 X
1Y
b0xx0x +
b0xx0x P
bx01 @
bx01 C
b10 -
b10 W
b10 ]
bx A
bx F
bx \
1,
x=
00
x:
x>
x3
b111x1 .
b111x1 R
b11111111111111111111111101 V
b10111111 5
b10111111 [
b11111 /
b11111 Q
b11101 4
b11101 S
b10111111111111111111111111101 ;
b10111111111111111111111111101 _
#1926000
bx @
bx C
bx 1
bx I
bx T
b0 2
b0 E
b0 U
#1980000
1#
#2040000
b10000 6
b10000 O
b11100 "
b11100 B
b11100 M
b11100 ^
b10001 '
0#
#2044000
bx +
bx P
bx ?
bx G
bx H
b100000 6
b100000 O
b11 -
b11 W
b11 ]
b111 A
b111 F
b111 \
0,
1=
0>
13
b100 <
b100 N
b100 X
0Y
b1100 .
b1100 R
b10001100 V
b10110100000 5
b10110100000 [
b100 /
b100 Q
b1100 4
b1100 S
b10110100000000000000000010001100 ;
b10110100000000000000000010001100 _
#2046000
b0xx0x +
b0xx0x P
b1101 ?
b1101 G
b1101 H
b1101 @
b1101 C
b1101 1
b1101 I
b1101 T
bx 2
bx E
bx U
#2100000
1#
#2160000
b100100 6
b100100 O
b100000 "
b100000 B
b100000 M
b100000 ^
b10010 '
0#
#2164000
bx ?
bx G
bx H
bx +
bx P
bx -
bx W
bx ]
b10 A
b10 F
b10 \
0=
10
0:
03
b0 <
b0 N
b0 X
b1001 .
b1001 R
b11000010010000000110101101 V
b10001011000 5
b10001011000 [
b1101 /
b1101 Q
b1101 4
b1101 S
b10001011000010010000000110101101 ;
b10001011000010010000000110101101 _
#2166000
b11 +
b11 P
b1 @
b1 C
b11 ?
b11 G
b11 H
b1 1
b1 I
b1 T
b10 2
b10 E
b10 U
#2220000
1#
#2280000
b101000 6
b101000 O
b100100 "
b100100 B
b100100 M
b100100 ^
b10011 '
0#
#2284000
b1 +
b1 P
b1 ?
b1 G
b1 H
b110 A
b110 F
b110 \
b11000010010000000110001100 V
b11001011000 5
b11001011000 [
b1100 /
b1100 Q
b1100 4
b1100 S
b11001011000010010000000110001100 ;
b11001011000010010000000110001100 _
#2286000
b1100 +
b1100 P
b1100 ?
b1100 G
b1100 H
b1101 2
b1101 E
b1101 U
#2340000
1#
#2400000
b101100 6
b101100 O
b101000 "
b101000 B
b101000 M
b101000 ^
b10100 '
0#
#2404000
b11100 6
b11100 O
b1111111111111111111111111111111111111111111111111111111111111101 <
b1111111111111111111111111111111111111111111111111111111111111101 N
b1111111111111111111111111111111111111111111111111111111111111101 X
1Y
b0xx00 +
b0xx00 P
bx01 @
bx01 C
b10 -
b10 W
b10 ]
bx A
bx F
bx \
1,
x=
00
x:
x>
x3
b111x1 .
b111x1 R
b11111111111111111111111101 V
b10111111 5
b10111111 [
b11111 /
b11111 Q
b11101 4
b11101 S
b10111111111111111111111111101 ;
b10111111111111111111111111101 _
#2406000
bx @
bx C
bx 1
bx I
bx T
b0 2
b0 E
b0 U
#2460000
1#
#2520000
b10000 6
b10000 O
b11100 "
b11100 B
b11100 M
b11100 ^
b10101 '
0#
#2524000
bx +
bx P
bx ?
bx G
bx H
b100000 6
b100000 O
b11 -
b11 W
b11 ]
b111 A
b111 F
b111 \
0,
1=
0>
13
b100 <
b100 N
b100 X
0Y
b1100 .
b1100 R
b10001100 V
b10110100000 5
b10110100000 [
b100 /
b100 Q
b1100 4
b1100 S
b10110100000000000000000010001100 ;
b10110100000000000000000010001100 _
#2526000
b0xx00 +
b0xx00 P
b1100 ?
b1100 G
b1100 H
b1100 @
b1100 C
b1100 1
b1100 I
b1100 T
bx 2
bx E
bx U
#2580000
1#
#2640000
b100100 6
b100100 O
b100000 "
b100000 B
b100000 M
b100000 ^
b10110 '
0#
#2644000
bx ?
bx G
bx H
bx +
bx P
bx -
bx W
bx ]
b10 A
b10 F
b10 \
0=
10
0:
03
b0 <
b0 N
b0 X
b1001 .
b1001 R
b11000010010000000110101101 V
b10001011000 5
b10001011000 [
b1101 /
b1101 Q
b1101 4
b1101 S
b10001011000010010000000110101101 ;
b10001011000010010000000110101101 _
#2646000
b100 +
b100 P
b1 @
b1 C
b100 ?
b100 G
b100 H
b1 1
b1 I
b1 T
b11 2
b11 E
b11 U
#2700000
1#
#2760000
b101000 6
b101000 O
b100100 "
b100100 B
b100100 M
b100100 ^
b10111 '
0#
#2764000
b10 +
b10 P
b10 ?
b10 G
b10 H
b110 A
b110 F
b110 \
b11000010010000000110001100 V
b11001011000 5
b11001011000 [
b1100 /
b1100 Q
b1100 4
b1100 S
b11001011000010010000000110001100 ;
b11001011000010010000000110001100 _
#2766000
b1011 +
b1011 P
b1011 ?
b1011 G
b1011 H
b1100 2
b1100 E
b1100 U
#2820000
1#
#2880000
b101100 6
b101100 O
b101000 "
b101000 B
b101000 M
b101000 ^
b11000 '
0#
#2884000
b11100 6
b11100 O
b1111111111111111111111111111111111111111111111111111111111111101 <
b1111111111111111111111111111111111111111111111111111111111111101 N
b1111111111111111111111111111111111111111111111111111111111111101 X
1Y
b0x0xx +
b0x0xx P
bx01 @
bx01 C
b10 -
b10 W
b10 ]
bx A
bx F
bx \
1,
x=
00
x:
x>
x3
b111x1 .
b111x1 R
b11111111111111111111111101 V
b10111111 5
b10111111 [
b11111 /
b11111 Q
b11101 4
b11101 S
b10111111111111111111111111101 ;
b10111111111111111111111111101 _
#2886000
bx @
bx C
bx 1
bx I
bx T
b0 2
b0 E
b0 U
#2940000
1#
#3000000
b10000 6
b10000 O
b11100 "
b11100 B
b11100 M
b11100 ^
b11001 '
0#
#3004000
bx +
bx P
bx ?
bx G
bx H
b100000 6
b100000 O
b11 -
b11 W
b11 ]
b111 A
b111 F
b111 \
0,
1=
0>
13
b100 <
b100 N
b100 X
0Y
b1100 .
b1100 R
b10001100 V
b10110100000 5
b10110100000 [
b100 /
b100 Q
b1100 4
b1100 S
b10110100000000000000000010001100 ;
b10110100000000000000000010001100 _
#3006000
b0x0xx +
b0x0xx P
b1011 ?
b1011 G
b1011 H
b1011 @
b1011 C
b1011 1
b1011 I
b1011 T
bx 2
bx E
bx U
#3060000
1#
#3120000
b100100 6
b100100 O
b100000 "
b100000 B
b100000 M
b100000 ^
b11010 '
0#
#3124000
bx ?
bx G
bx H
bx +
bx P
bx -
bx W
bx ]
b10 A
b10 F
b10 \
0=
10
0:
03
b0 <
b0 N
b0 X
b1001 .
b1001 R
b11000010010000000110101101 V
b10001011000 5
b10001011000 [
b1101 /
b1101 Q
b1101 4
b1101 S
b10001011000010010000000110101101 ;
b10001011000010010000000110101101 _
#3126000
b101 +
b101 P
b1 @
b1 C
b101 ?
b101 G
b101 H
b1 1
b1 I
b1 T
b100 2
b100 E
b100 U
#3180000
1#
#3240000
b101000 6
b101000 O
b100100 "
b100100 B
b100100 M
b100100 ^
b11011 '
0#
#3244000
b11 +
b11 P
b11 ?
b11 G
b11 H
b110 A
b110 F
b110 \
b11000010010000000110001100 V
b11001011000 5
b11001011000 [
b1100 /
b1100 Q
b1100 4
b1100 S
b11001011000010010000000110001100 ;
b11001011000010010000000110001100 _
#3246000
b1010 +
b1010 P
b1010 ?
b1010 G
b1010 H
b1011 2
b1011 E
b1011 U
#3300000
1#
#3360000
b101100 6
b101100 O
b101000 "
b101000 B
b101000 M
b101000 ^
b11100 '
0#
#3364000
b11100 6
b11100 O
b1111111111111111111111111111111111111111111111111111111111111101 <
b1111111111111111111111111111111111111111111111111111111111111101 N
b1111111111111111111111111111111111111111111111111111111111111101 X
1Y
b0x0x0 +
b0x0x0 P
bx01 @
bx01 C
b10 -
b10 W
b10 ]
bx A
bx F
bx \
1,
x=
00
x:
x>
x3
b111x1 .
b111x1 R
b11111111111111111111111101 V
b10111111 5
b10111111 [
b11111 /
b11111 Q
b11101 4
b11101 S
b10111111111111111111111111101 ;
b10111111111111111111111111101 _
#3366000
bx @
bx C
bx 1
bx I
bx T
b0 2
b0 E
b0 U
#3420000
1#
#3480000
b10000 6
b10000 O
b11100 "
b11100 B
b11100 M
b11100 ^
b11101 '
0#
#3484000
bx +
bx P
bx ?
bx G
bx H
b100000 6
b100000 O
b11 -
b11 W
b11 ]
b111 A
b111 F
b111 \
0,
1=
0>
13
b100 <
b100 N
b100 X
0Y
b1100 .
b1100 R
b10001100 V
b10110100000 5
b10110100000 [
b100 /
b100 Q
b1100 4
b1100 S
b10110100000000000000000010001100 ;
b10110100000000000000000010001100 _
#3486000
b0x0x0 +
b0x0x0 P
b1010 ?
b1010 G
b1010 H
b1010 @
b1010 C
b1010 1
b1010 I
b1010 T
bx 2
bx E
bx U
#3540000
1#
#3600000
b100100 6
b100100 O
b100000 "
b100000 B
b100000 M
b100000 ^
b11110 '
0#
#3604000
bx ?
bx G
bx H
bx +
bx P
bx -
bx W
bx ]
b10 A
b10 F
b10 \
0=
10
0:
03
b0 <
b0 N
b0 X
b1001 .
b1001 R
b11000010010000000110101101 V
b10001011000 5
b10001011000 [
b1101 /
b1101 Q
b1101 4
b1101 S
b10001011000010010000000110101101 ;
b10001011000010010000000110101101 _
#3606000
b110 +
b110 P
b1 @
b1 C
b110 ?
b110 G
b110 H
b1 1
b1 I
b1 T
b101 2
b101 E
b101 U
#3660000
1#
#3720000
b101000 6
b101000 O
b100100 "
b100100 B
b100100 M
b100100 ^
b11111 '
0#
#3724000
b100 +
b100 P
b100 ?
b100 G
b100 H
b110 A
b110 F
b110 \
b11000010010000000110001100 V
b11001011000 5
b11001011000 [
b1100 /
b1100 Q
b1100 4
b1100 S
b11001011000010010000000110001100 ;
b11001011000010010000000110001100 _
#3726000
b1001 +
b1001 P
b1001 ?
b1001 G
b1001 H
b1010 2
b1010 E
b1010 U
#3780000
1#
#3840000
b101100 6
b101100 O
b101000 "
b101000 B
b101000 M
b101000 ^
b100000 '
0#
#3844000
b11100 6
b11100 O
b1111111111111111111111111111111111111111111111111111111111111101 <
b1111111111111111111111111111111111111111111111111111111111111101 N
b1111111111111111111111111111111111111111111111111111111111111101 X
1Y
b0x00x +
b0x00x P
bx01 @
bx01 C
b10 -
b10 W
b10 ]
bx A
bx F
bx \
1,
x=
00
x:
x>
x3
b111x1 .
b111x1 R
b11111111111111111111111101 V
b10111111 5
b10111111 [
b11111 /
b11111 Q
b11101 4
b11101 S
b10111111111111111111111111101 ;
b10111111111111111111111111101 _
#3846000
bx @
bx C
bx 1
bx I
bx T
b0 2
b0 E
b0 U
#3900000
1#
#3960000
b10000 6
b10000 O
b11100 "
b11100 B
b11100 M
b11100 ^
b100001 '
0#
#3964000
bx +
bx P
bx ?
bx G
bx H
b100000 6
b100000 O
b11 -
b11 W
b11 ]
b111 A
b111 F
b111 \
0,
1=
0>
13
b100 <
b100 N
b100 X
0Y
b1100 .
b1100 R
b10001100 V
b10110100000 5
b10110100000 [
b100 /
b100 Q
b1100 4
b1100 S
b10110100000000000000000010001100 ;
b10110100000000000000000010001100 _
#3966000
b0x00x +
b0x00x P
b1001 ?
b1001 G
b1001 H
b1001 @
b1001 C
b1001 1
b1001 I
b1001 T
bx 2
bx E
bx U
#4020000
1#
#4080000
b100100 6
b100100 O
b100000 "
b100000 B
b100000 M
b100000 ^
b100010 '
0#
#4084000
bx ?
bx G
bx H
bx +
bx P
bx -
bx W
bx ]
b10 A
b10 F
b10 \
0=
10
0:
03
b0 <
b0 N
b0 X
b1001 .
b1001 R
b11000010010000000110101101 V
b10001011000 5
b10001011000 [
b1101 /
b1101 Q
b1101 4
b1101 S
b10001011000010010000000110101101 ;
b10001011000010010000000110101101 _
#4086000
b111 +
b111 P
b1 @
b1 C
b111 ?
b111 G
b111 H
b1 1
b1 I
b1 T
b110 2
b110 E
b110 U
#4140000
1#
#4200000
b101000 6
b101000 O
b100100 "
b100100 B
b100100 M
b100100 ^
b100011 '
0#
#4204000
b101 +
b101 P
b101 ?
b101 G
b101 H
b110 A
b110 F
b110 \
b11000010010000000110001100 V
b11001011000 5
b11001011000 [
b1100 /
b1100 Q
b1100 4
b1100 S
b11001011000010010000000110001100 ;
b11001011000010010000000110001100 _
#4206000
b1000 +
b1000 P
b1000 ?
b1000 G
b1000 H
b1001 2
b1001 E
b1001 U
#4260000
1#
#4320000
b101100 6
b101100 O
b101000 "
b101000 B
b101000 M
b101000 ^
b100100 '
0#
#4324000
b11100 6
b11100 O
b1111111111111111111111111111111111111111111111111111111111111101 <
b1111111111111111111111111111111111111111111111111111111111111101 N
b1111111111111111111111111111111111111111111111111111111111111101 X
1Y
b0x000 +
b0x000 P
bx01 @
bx01 C
b10 -
b10 W
b10 ]
bx A
bx F
bx \
1,
x=
00
x:
x>
x3
b111x1 .
b111x1 R
b11111111111111111111111101 V
b10111111 5
b10111111 [
b11111 /
b11111 Q
b11101 4
b11101 S
b10111111111111111111111111101 ;
b10111111111111111111111111101 _
#4326000
bx @
bx C
bx 1
bx I
bx T
b0 2
b0 E
b0 U
#4380000
1#
#4440000
b10000 6
b10000 O
b11100 "
b11100 B
b11100 M
b11100 ^
b100101 '
0#
#4444000
bx +
bx P
bx ?
bx G
bx H
b100000 6
b100000 O
b11 -
b11 W
b11 ]
b111 A
b111 F
b111 \
0,
1=
0>
13
b100 <
b100 N
b100 X
0Y
b1100 .
b1100 R
b10001100 V
b10110100000 5
b10110100000 [
b100 /
b100 Q
b1100 4
b1100 S
b10110100000000000000000010001100 ;
b10110100000000000000000010001100 _
#4446000
b0x000 +
b0x000 P
b1000 ?
b1000 G
b1000 H
b1000 @
b1000 C
b1000 1
b1000 I
b1000 T
bx 2
bx E
bx U
#4500000
1#
#4560000
b100100 6
b100100 O
b100000 "
b100000 B
b100000 M
b100000 ^
b100110 '
0#
#4564000
bx ?
bx G
bx H
bx +
bx P
bx -
bx W
bx ]
b10 A
b10 F
b10 \
0=
10
0:
03
b0 <
b0 N
b0 X
b1001 .
b1001 R
b11000010010000000110101101 V
b10001011000 5
b10001011000 [
b1101 /
b1101 Q
b1101 4
b1101 S
b10001011000010010000000110101101 ;
b10001011000010010000000110101101 _
#4566000
b1000 +
b1000 P
b1 @
b1 C
b1000 ?
b1000 G
b1000 H
b1 1
b1 I
b1 T
b111 2
b111 E
b111 U
#4620000
1#
#4680000
b101000 6
b101000 O
b100100 "
b100100 B
b100100 M
b100100 ^
b100111 '
0#
#4684000
b110 +
b110 P
b110 ?
b110 G
b110 H
b110 A
b110 F
b110 \
b11000010010000000110001100 V
b11001011000 5
b11001011000 [
b1100 /
b1100 Q
b1100 4
b1100 S
b11001011000010010000000110001100 ;
b11001011000010010000000110001100 _
#4685000
b111 +
b111 P
b111 ?
b111 G
b111 H
b1000 2
b1000 E
b1000 U
#4740000
1#
#4800000
b101100 6
b101100 O
b101000 "
b101000 B
b101000 M
b101000 ^
b101000 '
0#
#4804000
b11100 6
b11100 O
b1111111111111111111111111111111111111111111111111111111111111101 <
b1111111111111111111111111111111111111111111111111111111111111101 N
b1111111111111111111111111111111111111111111111111111111111111101 X
1Y
b0xxx +
b0xxx P
bx01 @
bx01 C
b10 -
b10 W
b10 ]
bx A
bx F
bx \
1,
x=
00
x:
x>
x3
b111x1 .
b111x1 R
b11111111111111111111111101 V
b10111111 5
b10111111 [
b11111 /
b11111 Q
b11101 4
b11101 S
b10111111111111111111111111101 ;
b10111111111111111111111111101 _
#4806000
bx @
bx C
bx 1
bx I
bx T
b0 2
b0 E
b0 U
#4860000
1#
#4920000
b10000 6
b10000 O
b11100 "
b11100 B
b11100 M
b11100 ^
b101001 '
0#
#4924000
bx +
bx P
bx ?
bx G
bx H
b100000 6
b100000 O
b11 -
b11 W
b11 ]
b111 A
b111 F
b111 \
0,
1=
0>
13
b100 <
b100 N
b100 X
0Y
b1100 .
b1100 R
b10001100 V
b10110100000 5
b10110100000 [
b100 /
b100 Q
b1100 4
b1100 S
b10110100000000000000000010001100 ;
b10110100000000000000000010001100 _
#4926000
b0xxx +
b0xxx P
b111 ?
b111 G
b111 H
b111 @
b111 C
b111 1
b111 I
b111 T
bx 2
bx E
bx U
#4980000
1#
#5040000
b100100 6
b100100 O
b100000 "
b100000 B
b100000 M
b100000 ^
b101010 '
0#
#5044000
bx ?
bx G
bx H
bx +
bx P
bx -
bx W
bx ]
b10 A
b10 F
b10 \
0=
10
0:
03
b0 <
b0 N
b0 X
b1001 .
b1001 R
b11000010010000000110101101 V
b10001011000 5
b10001011000 [
b1101 /
b1101 Q
b1101 4
b1101 S
b10001011000010010000000110101101 ;
b10001011000010010000000110101101 _
#5046000
b1001 +
b1001 P
b1 @
b1 C
b1001 ?
b1001 G
b1001 H
b1 1
b1 I
b1 T
b1000 2
b1000 E
b1000 U
#5100000
1#
#5160000
b101000 6
b101000 O
b100100 "
b100100 B
b100100 M
b100100 ^
b101011 '
0#
#5164000
b111 +
b111 P
b111 ?
b111 G
b111 H
b110 A
b110 F
b110 \
b11000010010000000110001100 V
b11001011000 5
b11001011000 [
b1100 /
b1100 Q
b1100 4
b1100 S
b11001011000010010000000110001100 ;
b11001011000010010000000110001100 _
